﻿biomes.png=821009255
checksums.txt=1207870892
dtm.raw=2564563548
dtm_processed.raw=3224958141
main.ttw=211393549
map_info.xml=93885273
prefabs.xml=3323421871
radiation.png=934863025
spawnpoints.xml=3526469572
splat3.png=138533197
splat3_processed.png=2466896670
splat4.png=3498008728
splat4_processed.png=2999150127
