﻿biomes.png=1696809613
dtm.raw=1474766539
dtm_processed.raw=1487170780
main.ttw=3448678246
map_info.xml=2798473129
prefabs.xml=2611954889
radiation.png=2992814359
spawnpoints.xml=1964955842
splat3.png=3940439633
splat3_processed.png=1389345737
splat4.png=2713362900
splat4_processed.png=4144171239
